# 1 "feeder/commands.c"
# 1 "<built-in>" 1
# 1 "<built-in>" 3
# 288 "<built-in>" 3
# 1 "<command line>" 1
# 1 "<built-in>" 2
# 1 "C:/Users/Flitch/.mchp_packs/Microchip/PIC18F-Q_DFP/1.9.175/xc8\\pic\\include\\language_support.h" 1 3
# 2 "<built-in>" 2
# 1 "feeder/commands.c" 2
# 17 "feeder/commands.c"
# 1 "feeder/commands.h" 1
# 17 "feeder/commands.c" 2

